test.vcd
$date
	Thu Aug  1 22:12:23 2019
$end
$version
	Icarus Verilog
$end
$timescale
	1ps
$end
$scope module sinewave $end
$var wire 1 ! rst $end
$upscope $end
$scope module testbench $end
$var wire 1 " sck $end
$var wire 1 # mosi $end
$var reg 1 $ clk $end
$var reg 1 % reset $end
$scope module mytop1 $end
$var wire 1 $ clk $end
$var wire 1 % reset $end
$var wire 1 " sck $end
$var wire 1 # mosi $end
$var wire 1 & doledbusy $end
$var reg 1 ' advance_color $end
$var reg 8 ( blue_buf [7:0] $end
$var reg 8 ) clk_countdown [7:0] $end
$var reg 4 * colorstate [3:0] $end
$var reg 1 + finished $end
$var reg 8 , green_buf [7:0] $end
$var reg 8 - led_count [7:0] $end
$var reg 1 . ledstart $end
$var reg 8 / my_blue [7:0] $end
$var reg 8 0 my_green [7:0] $end
$var reg 8 1 my_red [7:0] $end
$var reg 8 2 red_buf [7:0] $end
$var reg 1 3 rst $end
$var reg 1 4 slowclk $end
$var reg 1 5 stringend $end
$scope module doled1 $end
$var wire 8 6 blue [7:0] $end
$var wire 1 $ clk $end
$var wire 8 7 green [7:0] $end
$var wire 1 . ledstart $end
$var wire 8 8 red [7:0] $end
$var wire 1 3 rst $end
$var wire 1 5 stringend $end
$var wire 1 9 spibusy $end
$var wire 1 " sck $end
$var wire 1 # mosi $end
$var reg 8 : data_out [7:0] $end
$var reg 2 ; delay_for_spi_to_clear_busy [1:0] $end
$var reg 1 & doledbusy $end
$var reg 1 < dostringend $end
$var reg 8 = myblue [7:0] $end
$var reg 8 > mygreen [7:0] $end
$var reg 8 ? myinit [7:0] $end
$var reg 1 @ myledstart $end
$var reg 8 A myred [7:0] $end
$var reg 4 B mystate [3:0] $end
$var reg 1 C spistart $end
$scope module spi1 $end
$var wire 1 $ clk $end
$var wire 8 D data_in [7:0] $end
$var wire 1 # mosi $end
$var wire 1 3 rst $end
$var wire 1 " sck $end
$var wire 1 C start $end
$var wire 1 9 busy $end
$var reg 3 E ctr_d [2:0] $end
$var reg 3 F ctr_q [2:0] $end
$var reg 8 G data_d [7:0] $end
$var reg 8 H data_q [7:0] $end
$var reg 1 I mosi_d $end
$var reg 1 J mosi_q $end
$var reg 4 K sck_d [3:0] $end
$var reg 4 L sck_q [3:0] $end
$var reg 2 M state_d [1:0] $end
$var reg 2 N state_q [1:0] $end
$upscope $end
$upscope $end
$upscope $end
$upscope $end
$enddefinitions $end
#0
$dumpvars
bx N
bx M
bx L
bx K
xJ
xI
bx H
bx G
bx F
bx E
bx D
xC
bx B
bx A
x@
bx ?
bx >
bx =
x<
bx ;
bx :
x9
bx 8
bx 7
bx 6
x5
x4
x3
bx 2
bx 1
bx 0
bx /
x.
bx -
bx ,
x+
bx *
bx )
bx (
x'
x&
0%
0$
x#
x"
z!
$end
#100000
03
1$
#150000
0$
#200000
1$
#250000
0$
#300000
1$
#350000
0$
#400000
1$
#450000
0$
#500000
1$
#550000
0$
#600000
1$
#650000
0$
#700000
1$
#750000
1%
#800000
0$
#850000
0C
b0 ;
0@
0<
0&
b0 :
b0 D
b0 =
b0 >
b0 A
b0 ?
b0 B
0.
0+
b0 2
b0 8
b0 (
b0 6
b0 ,
b0 7
b1100100 1
b10100 /
b0 0
b0 -
0'
b0 *
b0 )
04
13
1$
#900000
0$
#950000
1$
#955000
0"
b0 M
b0 E
0I
b0 G
b0 K
09
b0 N
0#
0J
b0 L
b0 H
b0 F
#1000000
0$
#1050000
1$
#1100000
0$
#1150000
1$
#1200000
0$
#1250000
1$
#1300000
0$
#1350000
1$
#1400000
0$
#1450000
1$
#1500000
0$
#1550000
1$
#1600000
0$
#1650000
1$
#1700000
0$
#1750000
1$
#1800000
0$
#1850000
0%
#1900000
b1 )
03
1$
#1950000
0$
#2000000
b10 )
1$
#2050000
0$
#2100000
b1 *
15
14
b0 )
1$
#2150000
0$
#2200000
b1 )
1$
#2250000
0$
#2300000
b10 )
1$
#2350000
0$
#2400000
04
b0 )
1$
#2450000
0$
#2500000
b1 )
1$
#2550000
0$
#2600000
b10 )
1$
#2650000
0$
#2700000
b10 *
1.
14
b0 )
1$
#2750000
0$
#2800000
b1 )
1&
1<
b1 B
1@
1$
#2850000
0$
#2900000
b10 )
b10 B
1$
#2950000
0$
#3000000
04
b0 )
b11 B
1$
#3050000
0$
#3100000
b1 M
b1 )
b100 B
1C
1$
#3150000
0$
#3200000
b10 )
b1 ;
1$
#3205000
b1 K
19
b1 N
#3250000
0$
#3300000
0.
b11 *
14
b0 )
b10 ;
1$
#3305000
b10 K
b1 L
#3350000
0$
#3400000
b1 )
b11 ;
1$
#3405000
b11 K
b10 L
#3450000
0$
#3500000
b11 K
b10 )
b101 B
0C
1$
#3505000
b100 K
b11 L
#3550000
0$
#3600000
04
b0 )
1$
#3605000
b101 K
b100 L
#3650000
0$
#3700000
b1 )
1$
#3705000
b110 K
b101 L
#3750000
0$
#3800000
b10 )
1$
#3805000
b111 K
b110 L
#3850000
0$
#3900000
05
14
b0 )
1$
#3905000
b10 M
b0 K
b111 L
#3950000
0$
#4000000
b1 )
1$
#4005000
b1 K
b10 N
b0 L
#4050000
0$
#4100000
b10 )
1$
#4105000
b10 K
b1 L
#4150000
0$
#4200000
04
b0 )
1$
#4205000
b11 K
b10 L
#4250000
0$
#4300000
b1 )
1$
#4305000
b100 K
b11 L
#4350000
0$
#4400000
b10 )
1$
#4405000
b101 K
b100 L
#4450000
0$
#4500000
14
b0 )
1$
#4505000
b110 K
b101 L
#4550000
0$
#4600000
b1 )
1$
#4605000
b111 K
b110 L
#4650000
0$
#4700000
b10 )
1$
#4705000
b1000 K
b111 L
#4750000
0$
#4800000
04
b0 )
1$
#4805000
1"
b1001 K
b1000 L
#4850000
0$
#4900000
b1 )
1$
#4905000
b1010 K
b1001 L
#4950000
0$
#5000000
b10 )
1$
#5005000
b1011 K
b1010 L
#5050000
0$
#5100000
14
b0 )
1$
#5105000
b1100 K
b1011 L
#5150000
0$
#5200000
b1 )
1$
#5205000
b1101 K
b1100 L
#5250000
0$
#5300000
b10 )
1$
#5305000
b1110 K
b1101 L
#5350000
0$
#5400000
04
b0 )
1$
#5405000
b1111 K
b1110 L
#5450000
0$
#5500000
b1 )
1$
#5505000
b1 E
b0 K
b1111 L
#5550000
0$
#5600000
b10 )
1$
#5605000
0"
b1 K
b0 L
b1 F
#5650000
0$
#5700000
14
b0 )
1$
#5705000
b10 K
b1 L
#5750000
0$
#5800000
b1 )
1$
#5805000
b11 K
b10 L
#5850000
0$
#5900000
b10 )
1$
#5905000
b100 K
b11 L
#5950000
0$
#6000000
04
b0 )
1$
#6005000
b101 K
b100 L
#6050000
0$
#6100000
b1 )
1$
#6105000
b110 K
b101 L
#6150000
0$
#6200000
b10 )
1$
#6205000
b111 K
b110 L
#6250000
0$
#6300000
14
b0 )
1$
#6305000
b1000 K
b111 L
#6350000
0$
#6400000
b1 )
1$
#6405000
1"
b1001 K
b1000 L
#6450000
0$
#6500000
b10 )
1$
#6505000
b1010 K
b1001 L
#6550000
0$
#6600000
04
b0 )
1$
#6605000
b1011 K
b1010 L
#6650000
0$
#6700000
b1 )
1$
#6705000
b1100 K
b1011 L
#6750000
0$
#6800000
b10 )
1$
#6805000
b1101 K
b1100 L
#6850000
0$
#6900000
14
b0 )
1$
#6905000
b1110 K
b1101 L
#6950000
0$
#7000000
b1 )
1$
#7005000
b1111 K
b1110 L
#7050000
0$
#7100000
b10 )
1$
#7105000
b10 E
b0 K
b1111 L
#7150000
0$
#7200000
04
b0 )
1$
#7205000
0"
b1 K
b0 L
b10 F
#7250000
0$
#7300000
b1 )
1$
#7305000
b10 K
b1 L
#7350000
0$
#7400000
b10 )
1$
#7405000
b11 K
b10 L
#7450000
0$
#7500000
14
b0 )
1$
#7505000
b100 K
b11 L
#7550000
0$
#7600000
b1 )
1$
#7605000
b101 K
b100 L
#7650000
0$
#7700000
b10 )
1$
#7705000
b110 K
b101 L
#7750000
0$
#7800000
04
b0 )
1$
#7805000
b111 K
b110 L
#7850000
0$
#7900000
b1 )
1$
#7905000
b1000 K
b111 L
#7950000
0$
#8000000
b10 )
1$
#8005000
1"
b1001 K
b1000 L
#8050000
0$
#8100000
14
b0 )
1$
#8105000
b1010 K
b1001 L
#8150000
0$
#8200000
b1 )
1$
#8205000
b1011 K
b1010 L
#8250000
0$
#8300000
b10 )
1$
#8305000
b1100 K
b1011 L
#8350000
0$
#8400000
04
b0 )
1$
#8405000
b1101 K
b1100 L
#8450000
0$
#8500000
b1 )
1$
#8505000
b1110 K
b1101 L
#8550000
0$
#8600000
b10 )
1$
#8605000
b1111 K
b1110 L
#8650000
0$
#8700000
14
b0 )
1$
#8705000
b11 E
b0 K
b1111 L
#8750000
0$
#8800000
b1 )
1$
#8805000
0"
b1 K
b0 L
b11 F
#8850000
0$
#8900000
b10 )
1$
#8905000
b10 K
b1 L
#8950000
0$
#9000000
04
b0 )
1$
#9005000
b11 K
b10 L
#9050000
0$
#9100000
b1 )
1$
#9105000
b100 K
b11 L
#9150000
0$
#9200000
b10 )
1$
#9205000
b101 K
b100 L
#9250000
0$
#9300000
14
b0 )
1$
#9305000
b110 K
b101 L
#9350000
0$
#9400000
b1 )
1$
#9405000
b111 K
b110 L
#9450000
0$
#9500000
b10 )
1$
#9505000
b1000 K
b111 L
#9550000
0$
#9600000
04
b0 )
1$
#9605000
1"
b1001 K
b1000 L
#9650000
0$
#9700000
b1 )
1$
#9705000
b1010 K
b1001 L
#9750000
0$
#9800000
b10 )
1$
#9805000
b1011 K
b1010 L
#9850000
0$
#9900000
14
b0 )
1$
#9905000
b1100 K
b1011 L
#9950000
0$
#10000000
b1 )
1$
#10005000
b1101 K
b1100 L
#10050000
0$
#10100000
b10 )
1$
#10105000
b1110 K
b1101 L
#10150000
0$
#10200000
04
b0 )
1$
#10205000
b1111 K
b1110 L
#10250000
0$
#10300000
b1 )
1$
#10305000
b100 E
b0 K
b1111 L
#10350000
0$
#10400000
b10 )
1$
#10405000
0"
b1 K
b0 L
b100 F
#10450000
0$
#10500000
14
b0 )
1$
#10505000
b10 K
b1 L
#10550000
0$
#10600000
b1 )
1$
#10605000
b11 K
b10 L
#10650000
0$
#10700000
b10 )
1$
#10705000
b100 K
b11 L
#10750000
0$
#10800000
04
b0 )
1$
#10805000
b101 K
b100 L
#10850000
0$
#10900000
b1 )
1$
#10905000
b110 K
b101 L
#10950000
0$
#11000000
b10 )
1$
#11005000
b111 K
b110 L
#11050000
0$
#11100000
14
b0 )
1$
#11105000
b1000 K
b111 L
#11150000
0$
#11200000
b1 )
1$
#11205000
1"
b1001 K
b1000 L
#11250000
0$
#11300000
b10 )
1$
#11305000
b1010 K
b1001 L
#11350000
0$
#11400000
04
b0 )
1$
#11405000
b1011 K
b1010 L
#11450000
0$
#11500000
b1 )
1$
#11505000
b1100 K
b1011 L
#11550000
0$
#11600000
b10 )
1$
#11605000
b1101 K
b1100 L
#11650000
0$
#11700000
14
b0 )
1$
#11705000
b1110 K
b1101 L
#11750000
0$
#11800000
b1 )
1$
#11805000
b1111 K
b1110 L
#11850000
0$
#11900000
b10 )
1$
#11905000
b101 E
b0 K
b1111 L
#11950000
0$
#12000000
04
b0 )
1$
#12005000
0"
b1 K
b0 L
b101 F
#12050000
0$
#12100000
b1 )
1$
#12105000
b10 K
b1 L
#12150000
0$
#12200000
b10 )
1$
#12205000
b11 K
b10 L
#12250000
0$
#12300000
14
b0 )
1$
#12305000
b100 K
b11 L
#12350000
0$
#12400000
b1 )
1$
#12405000
b101 K
b100 L
#12450000
0$
#12500000
b10 )
1$
#12505000
b110 K
b101 L
#12550000
0$
#12600000
04
b0 )
1$
#12605000
b111 K
b110 L
#12650000
0$
#12700000
b1 )
1$
#12705000
b1000 K
b111 L
#12750000
0$
#12800000
b10 )
1$
#12805000
1"
b1001 K
b1000 L
#12850000
0$
#12900000
14
b0 )
1$
#12905000
b1010 K
b1001 L
#12950000
0$
#13000000
b1 )
1$
#13005000
b1011 K
b1010 L
#13050000
0$
#13100000
b10 )
1$
#13105000
b1100 K
b1011 L
#13150000
0$
#13200000
04
b0 )
1$
#13205000
b1101 K
b1100 L
#13250000
0$
#13300000
b1 )
1$
#13305000
b1110 K
b1101 L
#13350000
0$
#13400000
b10 )
1$
#13405000
b1111 K
b1110 L
#13450000
0$
#13500000
14
b0 )
1$
#13505000
b110 E
b0 K
b1111 L
#13550000
0$
#13600000
b1 )
1$
#13605000
0"
b1 K
b0 L
b110 F
#13650000
0$
#13700000
b10 )
1$
#13705000
b10 K
b1 L
#13750000
0$
#13800000
04
b0 )
1$
#13805000
b11 K
b10 L
#13850000
0$
#13900000
b1 )
1$
#13905000
b100 K
b11 L
#13950000
0$
#14000000
b10 )
1$
#14005000
b101 K
b100 L
#14050000
0$
#14100000
14
b0 )
1$
#14105000
b110 K
b101 L
#14150000
0$
#14200000
b1 )
1$
#14205000
b111 K
b110 L
#14250000
0$
#14300000
b10 )
1$
#14305000
b1000 K
b111 L
#14350000
0$
#14400000
04
b0 )
1$
#14405000
1"
b1001 K
b1000 L
#14450000
0$
#14500000
b1 )
1$
#14505000
b1010 K
b1001 L
#14550000
0$
#14600000
b10 )
1$
#14605000
b1011 K
b1010 L
#14650000
0$
#14700000
14
b0 )
1$
#14705000
b1100 K
b1011 L
#14750000
0$
#14800000
b1 )
1$
#14805000
b1101 K
b1100 L
#14850000
0$
#14900000
b10 )
1$
#14905000
b1110 K
b1101 L
#14950000
0$
#15000000
04
b0 )
1$
#15005000
b1111 K
b1110 L
#15050000
0$
#15100000
b1 )
1$
#15105000
b111 E
b0 K
b1111 L
#15150000
0$
#15200000
b10 )
1$
#15205000
0"
b1 K
b0 L
b111 F
#15250000
0$
#15300000
14
b0 )
1$
#15305000
b10 K
b1 L
#15350000
0$
#15400000
b1 )
1$
#15405000
b11 K
b10 L
#15450000
0$
#15500000
b10 )
1$
#15505000
b100 K
b11 L
#15550000
0$
#15600000
04
b0 )
1$
#15605000
b101 K
b100 L
#15650000
0$
#15700000
b1 )
1$
#15705000
b110 K
b101 L
#15750000
0$
#15800000
b10 )
1$
#15805000
b111 K
b110 L
#15850000
0$
#15900000
14
b0 )
1$
#15905000
b1000 K
b111 L
#15950000
0$
#16000000
b1 )
1$
#16005000
1"
b1001 K
b1000 L
#16050000
0$
#16100000
b10 )
1$
#16105000
b1010 K
b1001 L
#16150000
0$
#16200000
04
b0 )
1$
#16205000
b1011 K
b1010 L
#16250000
0$
#16300000
b1 )
1$
#16305000
b1100 K
b1011 L
#16350000
0$
#16400000
b10 )
1$
#16405000
b1101 K
b1100 L
#16450000
0$
#16500000
14
b0 )
1$
#16505000
b1110 K
b1101 L
#16550000
0$
#16600000
b1 )
1$
#16605000
b1111 K
b1110 L
#16650000
0$
#16700000
b10 )
1$
#16705000
b0 M
b0 E
b0 K
b1111 L
#16750000
0$
#16800000
04
b0 )
1$
#16805000
0"
09
b0 N
b0 L
b0 F
#16850000
0$
#16900000
b1 )
b110 B
1$
#16950000
0$
#17000000
b1 M
b10 )
b111 B
1C
b0 ;
1$
#17050000
0$
#17100000
14
b0 )
b1 ;
1$
#17105000
b1 K
19
b1 N
#17150000
0$
#17200000
b1 )
b10 ;
1$
#17205000
b10 K
b1 L
#17250000
0$
#17300000
b10 )
b11 ;
1$
#17305000
b11 K
b10 L
#17350000
0$
#17400000
b11 K
04
b0 )
b1000 B
0C
1$
#17405000
b100 K
b11 L
#17450000
0$
#17500000
b1 )
1$
#17505000
b101 K
b100 L
#17550000
0$
#17600000
b10 )
1$
#17605000
b110 K
b101 L
#17650000
0$
#17700000
14
b0 )
1$
#17705000
b111 K
b110 L
#17750000
0$
#17800000
b1 )
1$
#17805000
b10 M
b0 K
b111 L
#17850000
0$
#17900000
b10 )
1$
#17905000
b1 K
b10 N
b0 L
#17950000
0$
#18000000
04
b0 )
1$
#18005000
b10 K
b1 L
#18050000
0$
#18100000
b1 )
1$
#18105000
b11 K
b10 L
#18150000
0$
#18200000
b10 )
1$
#18205000
b100 K
b11 L
#18250000
0$
#18300000
14
b0 )
1$
#18305000
b101 K
b100 L
#18350000
0$
#18400000
b1 )
1$
#18405000
b110 K
b101 L
#18450000
0$
#18500000
b10 )
1$
#18505000
b111 K
b110 L
#18550000
0$
#18600000
04
b0 )
1$
#18605000
b1000 K
b111 L
#18650000
0$
#18700000
b1 )
1$
#18705000
1"
b1001 K
b1000 L
#18750000
0$
#18800000
b10 )
1$
#18805000
b1010 K
b1001 L
#18850000
0$
#18900000
14
b0 )
1$
#18905000
b1011 K
b1010 L
#18950000
0$
#19000000
b1 )
1$
#19005000
b1100 K
b1011 L
#19050000
0$
#19100000
b10 )
1$
#19105000
b1101 K
b1100 L
#19150000
0$
#19200000
04
b0 )
1$
#19205000
b1110 K
b1101 L
#19250000
0$
#19300000
b1 )
1$
#19305000
b1111 K
b1110 L
#19350000
0$
#19400000
b10 )
1$
#19405000
b1 E
b0 K
b1111 L
#19450000
0$
#19500000
14
b0 )
1$
#19505000
0"
b1 K
b0 L
b1 F
#19550000
0$
#19600000
b1 )
1$
#19605000
b10 K
b1 L
#19650000
0$
#19700000
b10 )
1$
#19705000
b11 K
b10 L
#19750000
0$
#19800000
04
b0 )
1$
#19805000
b100 K
b11 L
#19850000
0$
#19900000
b1 )
1$
#19905000
b101 K
b100 L
#19950000
0$
#20000000
b10 )
1$
#20005000
b110 K
b101 L
#20050000
0$
#20100000
14
b0 )
1$
#20105000
b111 K
b110 L
#20150000
0$
#20200000
b1 )
1$
#20205000
b1000 K
b111 L
#20250000
0$
#20300000
b10 )
1$
#20305000
1"
b1001 K
b1000 L
#20350000
0$
#20400000
04
b0 )
1$
#20405000
b1010 K
b1001 L
#20450000
0$
#20500000
b1 )
1$
#20505000
b1011 K
b1010 L
#20550000
0$
#20600000
b10 )
1$
#20605000
b1100 K
b1011 L
#20650000
0$
#20700000
14
b0 )
1$
#20705000
b1101 K
b1100 L
#20750000
0$
#20800000
b1 )
1$
#20805000
b1110 K
b1101 L
#20850000
0$
#20900000
b10 )
1$
#20905000
b1111 K
b1110 L
#20950000
0$
#21000000
04
b0 )
1$
#21005000
b10 E
b0 K
b1111 L
#21050000
0$
#21100000
b1 )
1$
#21105000
0"
b1 K
b0 L
b10 F
#21150000
0$
#21200000
b10 )
1$
#21205000
b10 K
b1 L
#21250000
0$
#21300000
14
b0 )
1$
#21305000
b11 K
b10 L
#21350000
0$
#21400000
b1 )
1$
#21405000
b100 K
b11 L
#21450000
0$
#21500000
b10 )
1$
#21505000
b101 K
b100 L
#21550000
0$
#21600000
04
b0 )
1$
#21605000
b110 K
b101 L
#21650000
0$
#21700000
b1 )
1$
#21705000
b111 K
b110 L
#21750000
0$
#21800000
b10 )
1$
#21805000
b1000 K
b111 L
#21850000
0$
#21900000
14
b0 )
1$
#21905000
1"
b1001 K
b1000 L
#21950000
0$
#22000000
b1 )
1$
#22005000
b1010 K
b1001 L
#22050000
0$
#22100000
b10 )
1$
#22105000
b1011 K
b1010 L
#22150000
0$
#22200000
04
b0 )
1$
#22205000
b1100 K
b1011 L
#22250000
0$
#22300000
b1 )
1$
#22305000
b1101 K
b1100 L
#22350000
0$
#22400000
b10 )
1$
#22405000
b1110 K
b1101 L
#22450000
0$
#22500000
14
b0 )
1$
#22505000
b1111 K
b1110 L
#22550000
0$
#22600000
b1 )
1$
#22605000
b11 E
b0 K
b1111 L
#22650000
0$
#22700000
b10 )
1$
#22705000
0"
b1 K
b0 L
b11 F
#22750000
0$
#22800000
04
b0 )
1$
#22805000
b10 K
b1 L
#22850000
0$
#22900000
b1 )
1$
#22905000
b11 K
b10 L
#22950000
0$
#23000000
b10 )
1$
#23005000
b100 K
b11 L
#23050000
0$
#23100000
14
b0 )
1$
#23105000
b101 K
b100 L
#23150000
0$
#23200000
b1 )
1$
#23205000
b110 K
b101 L
#23250000
0$
#23300000
b10 )
1$
#23305000
b111 K
b110 L
#23350000
0$
#23400000
04
b0 )
1$
#23405000
b1000 K
b111 L
#23450000
0$
#23500000
b1 )
1$
#23505000
1"
b1001 K
b1000 L
#23550000
0$
#23600000
b10 )
1$
#23605000
b1010 K
b1001 L
#23650000
0$
#23700000
14
b0 )
1$
#23705000
b1011 K
b1010 L
#23750000
0$
#23800000
b1 )
1$
#23805000
b1100 K
b1011 L
#23850000
0$
#23900000
b10 )
1$
#23905000
b1101 K
b1100 L
#23950000
0$
#24000000
04
b0 )
1$
#24005000
b1110 K
b1101 L
#24050000
0$
#24100000
b1 )
1$
#24105000
b1111 K
b1110 L
#24150000
0$
#24200000
b10 )
1$
#24205000
b100 E
b0 K
b1111 L
#24250000
0$
#24300000
14
b0 )
1$
#24305000
0"
b1 K
b0 L
b100 F
#24350000
0$
#24400000
b1 )
1$
#24405000
b10 K
b1 L
#24450000
0$
#24500000
b10 )
1$
#24505000
b11 K
b10 L
#24550000
0$
#24600000
04
b0 )
1$
#24605000
b100 K
b11 L
#24650000
0$
#24700000
b1 )
1$
#24705000
b101 K
b100 L
#24750000
0$
#24800000
b10 )
1$
#24805000
b110 K
b101 L
#24850000
0$
#24900000
14
b0 )
1$
#24905000
b111 K
b110 L
#24950000
0$
#25000000
b1 )
1$
#25005000
b1000 K
b111 L
#25050000
0$
#25100000
b10 )
1$
#25105000
1"
b1001 K
b1000 L
#25150000
0$
#25200000
04
b0 )
1$
#25205000
b1010 K
b1001 L
#25250000
0$
#25300000
b1 )
1$
#25305000
b1011 K
b1010 L
#25350000
0$
#25400000
b10 )
1$
#25405000
b1100 K
b1011 L
#25450000
0$
#25500000
14
b0 )
1$
#25505000
b1101 K
b1100 L
#25550000
0$
#25600000
b1 )
1$
#25605000
b1110 K
b1101 L
#25650000
0$
#25700000
b10 )
1$
#25705000
b1111 K
b1110 L
#25750000
0$
#25800000
04
b0 )
1$
#25805000
b101 E
b0 K
b1111 L
#25850000
0$
#25900000
b1 )
1$
#25905000
0"
b1 K
b0 L
b101 F
#25950000
0$
#26000000
b10 )
1$
#26005000
b10 K
b1 L
#26050000
0$
#26100000
14
b0 )
1$
#26105000
b11 K
b10 L
#26150000
0$
#26200000
b1 )
1$
#26205000
b100 K
b11 L
#26250000
0$
#26300000
b10 )
1$
#26305000
b101 K
b100 L
#26350000
0$
#26400000
04
b0 )
1$
#26405000
b110 K
b101 L
#26450000
0$
#26500000
b1 )
1$
#26505000
b111 K
b110 L
#26550000
0$
#26600000
b10 )
1$
#26605000
b1000 K
b111 L
#26650000
0$
#26700000
14
b0 )
1$
#26705000
1"
b1001 K
b1000 L
#26750000
0$
#26800000
b1 )
1$
#26805000
b1010 K
b1001 L
#26850000
0$
#26900000
b10 )
1$
#26905000
b1011 K
b1010 L
#26950000
0$
#27000000
04
b0 )
1$
#27005000
b1100 K
b1011 L
#27050000
0$
#27100000
b1 )
1$
#27105000
b1101 K
b1100 L
#27150000
0$
#27200000
b10 )
1$
#27205000
b1110 K
b1101 L
#27250000
0$
#27300000
14
b0 )
1$
#27305000
b1111 K
b1110 L
#27350000
0$
#27400000
b1 )
1$
#27405000
b110 E
b0 K
b1111 L
#27450000
0$
#27500000
b10 )
1$
#27505000
0"
b1 K
b0 L
b110 F
#27550000
0$
#27600000
04
b0 )
1$
#27605000
b10 K
b1 L
#27650000
0$
#27700000
b1 )
1$
#27705000
b11 K
b10 L
#27750000
0$
#27800000
b10 )
1$
#27805000
b100 K
b11 L
#27850000
0$
#27900000
14
b0 )
1$
#27905000
b101 K
b100 L
#27950000
0$
#28000000
b1 )
1$
#28005000
b110 K
b101 L
#28050000
0$
#28100000
b10 )
1$
#28105000
b111 K
b110 L
#28150000
0$
#28200000
04
b0 )
1$
#28205000
b1000 K
b111 L
#28250000
0$
#28300000
b1 )
1$
#28305000
1"
b1001 K
b1000 L
#28350000
0$
#28400000
b10 )
1$
#28405000
b1010 K
b1001 L
#28450000
0$
#28500000
14
b0 )
1$
#28505000
b1011 K
b1010 L
#28550000
0$
#28600000
b1 )
1$
#28605000
b1100 K
b1011 L
#28650000
0$
#28700000
b10 )
1$
#28705000
b1101 K
b1100 L
#28750000
0$
#28800000
04
b0 )
1$
#28805000
b1110 K
b1101 L
#28850000
0$
#28900000
b1 )
1$
#28905000
b1111 K
b1110 L
#28950000
0$
#29000000
b10 )
1$
#29005000
b111 E
b0 K
b1111 L
#29050000
0$
#29100000
14
b0 )
1$
#29105000
0"
b1 K
b0 L
b111 F
#29150000
0$
#29200000
b1 )
1$
#29205000
b10 K
b1 L
#29250000
0$
#29300000
b10 )
1$
#29305000
b11 K
b10 L
#29350000
0$
#29400000
04
b0 )
1$
#29405000
b100 K
b11 L
#29450000
0$
#29500000
b1 )
1$
#29505000
b101 K
b100 L
#29550000
0$
#29600000
b10 )
1$
#29605000
b110 K
b101 L
#29650000
0$
#29700000
14
b0 )
1$
#29705000
b111 K
b110 L
#29750000
0$
#29800000
b1 )
1$
#29805000
b1000 K
b111 L
#29850000
0$
#29900000
b10 )
1$
#29905000
1"
b1001 K
b1000 L
#29950000
0$
#30000000
04
b0 )
1$
#30005000
b1010 K
b1001 L
#30050000
0$
#30100000
b1 )
1$
#30105000
b1011 K
b1010 L
#30150000
0$
#30200000
b10 )
1$
#30205000
b1100 K
b1011 L
#30250000
0$
#30300000
14
b0 )
1$
#30305000
b1101 K
b1100 L
#30350000
0$
#30400000
b1 )
1$
#30405000
b1110 K
b1101 L
#30450000
0$
#30500000
b10 )
1$
#30505000
b1111 K
b1110 L
#30550000
0$
#30600000
04
b0 )
1$
#30605000
b0 M
b0 E
b0 K
b1111 L
#30650000
0$
#30700000
b1 )
1$
#30705000
0"
09
b0 N
b0 L
b0 F
#30750000
0$
#30800000
b10 )
b1001 B
1$
#30850000
0$
#30900000
b1 M
14
b0 )
b1010 B
1C
b0 ;
1$
#30950000
0$
#31000000
b1 )
b1 ;
1$
#31005000
b1 K
19
b1 N
#31050000
0$
#31100000
b10 )
b10 ;
1$
#31105000
b10 K
b1 L
#31150000
0$
#31200000
04
b0 )
b11 ;
1$
#31205000
b11 K
b10 L
#31250000
0$
#31300000
b11 K
b1 )
b1011 B
0C
1$
#31305000
b100 K
b11 L
#31350000
0$
#31400000
b10 )
1$
#31405000
b101 K
b100 L
#31450000
0$
#31500000
14
b0 )
1$
#31505000
b110 K
b101 L
#31550000
0$
#31600000
b1 )
1$
#31605000
b111 K
b110 L
#31650000
0$
#31700000
b10 )
1$
#31705000
b10 M
b0 K
b111 L
#31750000
0$
#31800000
04
b0 )
1$
#31805000
b1 K
b10 N
b0 L
#31850000
0$
#31900000
b1 )
1$
#31905000
b10 K
b1 L
#31950000
0$
#32000000
b10 )
1$
#32005000
b11 K
b10 L
#32050000
0$
#32100000
14
b0 )
1$
#32105000
b100 K
b11 L
#32150000
0$
#32200000
b1 )
1$
#32205000
b101 K
b100 L
#32250000
0$
#32300000
b10 )
1$
#32305000
b110 K
b101 L
#32350000
0$
#32400000
04
b0 )
1$
#32405000
b111 K
b110 L
#32450000
0$
#32500000
b1 )
1$
#32505000
b1000 K
b111 L
#32550000
0$
#32600000
b10 )
1$
#32605000
1"
b1001 K
b1000 L
#32650000
0$
#32700000
14
b0 )
1$
#32705000
b1010 K
b1001 L
#32750000
0$
#32800000
b1 )
1$
#32805000
b1011 K
b1010 L
#32850000
0$
#32900000
b10 )
1$
#32905000
b1100 K
b1011 L
#32950000
0$
#33000000
04
b0 )
1$
#33005000
b1101 K
b1100 L
#33050000
0$
#33100000
b1 )
1$
#33105000
b1110 K
b1101 L
#33150000
0$
#33200000
b10 )
1$
#33205000
b1111 K
b1110 L
#33250000
0$
#33300000
14
b0 )
1$
#33305000
b1 E
b0 K
b1111 L
#33350000
0$
#33400000
b1 )
1$
#33405000
0"
b1 K
b0 L
b1 F
#33450000
0$
#33500000
b10 )
1$
#33505000
b10 K
b1 L
#33550000
0$
#33600000
04
b0 )
1$
#33605000
b11 K
b10 L
#33650000
0$
#33700000
b1 )
1$
#33705000
b100 K
b11 L
#33750000
0$
#33800000
b10 )
1$
#33805000
b101 K
b100 L
#33850000
0$
#33900000
14
b0 )
1$
#33905000
b110 K
b101 L
#33950000
0$
#34000000
b1 )
1$
#34005000
b111 K
b110 L
#34050000
0$
#34100000
b10 )
1$
#34105000
b1000 K
b111 L
#34150000
0$
#34200000
04
b0 )
1$
#34205000
1"
b1001 K
b1000 L
#34250000
0$
#34300000
b1 )
1$
#34305000
b1010 K
b1001 L
#34350000
0$
#34400000
b10 )
1$
#34405000
b1011 K
b1010 L
#34450000
0$
#34500000
14
b0 )
1$
#34505000
b1100 K
b1011 L
#34550000
0$
#34600000
b1 )
1$
#34605000
b1101 K
b1100 L
#34650000
0$
#34700000
b10 )
1$
#34705000
b1110 K
b1101 L
#34750000
0$
#34800000
04
b0 )
1$
#34805000
b1111 K
b1110 L
#34850000
0$
#34900000
b1 )
1$
#34905000
b10 E
b0 K
b1111 L
#34950000
0$
#35000000
b10 )
1$
#35005000
0"
b1 K
b0 L
b10 F
#35050000
0$
#35100000
14
b0 )
1$
#35105000
b10 K
b1 L
#35150000
0$
#35200000
b1 )
1$
#35205000
b11 K
b10 L
#35250000
0$
#35300000
b10 )
1$
#35305000
b100 K
b11 L
#35350000
0$
#35400000
04
b0 )
1$
#35405000
b101 K
b100 L
#35450000
0$
#35500000
b1 )
1$
#35505000
b110 K
b101 L
#35550000
0$
#35600000
b10 )
1$
#35605000
b111 K
b110 L
#35650000
0$
#35700000
14
b0 )
1$
#35705000
b1000 K
b111 L
#35750000
0$
#35800000
b1 )
1$
#35805000
1"
b1001 K
b1000 L
#35850000
0$
#35900000
b10 )
1$
#35905000
b1010 K
b1001 L
#35950000
0$
#36000000
04
b0 )
1$
#36005000
b1011 K
b1010 L
